
{
    "subject": "5050424c32303233546f6e79414441",
    "alias": "TV",
    "contactData": {
      "value": [""]
    },
    "url": {
      "value": ""
    },
    "bio": {
      "value": "Data analyst aspiring to developer"
    },
    "goals": {
      "value":"Learn Plutus and contribute to Cardano"
    }
}

